「料紙研究の最新手法と成果」関連データ
…
ggsave(file = "fig3-2.png", width = 6, height = 4, dpi = 300) # ファイルの保存

松尾大社社蔵史料の料紙におけるデンプン粒，鉱物，細胞組織，繊維の主成分分析

tbs <- read_csv("matsunoo-compo.csv")  # CSVファイルの読み取り
tbs # 読み込んだデータ

# A tibble: 63 x 7
   目録番号 紙素材 デンプン粒  鉱物 細胞組織  繊維  ほか
      <dbl> <chr>       <dbl> <dbl>    <dbl> <dbl> <dbl>
 1        1 コウゾ          0     0        0     0    41
 2        2 コウゾ          0     0      497     6    62
 3        3 コウゾ          2     6      263     0     0
 4        4 コウゾ          0     1      236     5     0
 5        5 コウゾ          0     0      207     6     0
 6        6 コウゾ          0     0      207     6     0
 7        7 コウゾ          0     0      348     9     0
 8        8 コウゾ          0     0      194     9     0
 9        9 コウゾ          0     0      326     8     0
10       10 宿紙           20     0       35     4     0
# ... with 53 more rows
…
陽明文庫所蔵史料の料紙におけるデンプン粒，鉱物，細胞組織，繊維の主成分分析

tbs3 <- read_csv("yomei-compo.csv")  # CSVファイルの読み取り
tbs3 # 読み込んだデータ

# A tibble: 89 x 7
   番号   紙素材 デンプン粒  鉱物 細胞組織  繊維  ほか
   <chr>  <chr>       <dbl> <dbl>    <dbl> <dbl> <dbl>
 1 11-391 コウゾ         20     3       97     1    28
 2 11-392 コウゾ          0     0       62     0     0
 3 11-393 コウゾ          5     1      119     0     0
 4 11-394 コウゾ          0     0       74     0    10
 5 11-396 コウゾ          0     1      108     0     0
 6 11-397 コウゾ          0     1       58     1     0
 7 11-398 コウゾ          0     0       91     0     0
 8 11-399 コウゾ          0     0       48     0    10
 9 11-400 コウゾ         81     4       95     0     0
10 11-401 コウゾ          0     0       19     0     5
# ... with 79 more rows
…
